[
  {
    "id": 1,
    "username": "Galkun",
    "email": "galihkun@example.com",
    "password": "randomPass1",
    "job": "Hotelier"
  },
  {
    "id": 2,
    "username": "Donedon",
    "email": "fidoni@example.com",
    "password": "randomPass2",
    "job": "Progarammer"
  },
  {
    "id": 3,
    "username": "Hwamm",
    "email": "hamzalah@example.com",
    "password": "randomPass3",
    "job": "Gammer"
  },
  {
    "id": 4,
    "username": "Cangcut",
    "email": "syafrizal@example.com",
    "password": "randomPass4",
    "job": "Bisnisman"
  },
  {
    "id": 5,
    "username": "Kayat",
    "email": "irwan@example.com",
    "password": "randomPass5",
    "job": "Designer"
  },
  {
    "id": 6,
    "username": "Bungkik",
    "email": "didhan@example.com",
    "password": "randomPass6",
    "job": "Lawyer"
  },
  {
    "id": 7,
    "username": "Munkri",
    "email": "galang@example.com",
    "password": "randomPass7",
    "job": "Bisnisman"
  }
]
